EESchema Schematic File Version 4
EELAYER 30 0
EELAYER END
$Descr A3 16535 11693
encoding utf-8
Sheet 1 2
Title "LED String USB Controller"
Date "2020-09-30"
Rev "1.1"
Comp "PRL"
Comment1 ""
Comment2 ""
Comment3 ""
Comment4 ""
$EndDescr
$Comp
L LED-String-USB-Controller-rescue:USB_B-Connector J8
U 1 1 5E47BA6B
P 14320 2180
F 0 "J8" H 14377 2647 50  0000 C CNN
F 1 "USB_B" H 14377 2556 50  0000 C CNN
F 2 "Connector_USB:USB_A_Stewart_SS-52100-001_Horizontal" H 14470 2130 50  0001 C CNN
F 3 " ~" H 14470 2130 50  0001 C CNN
	1    14320 2180
	1    0    0    -1  
$EndComp
$Comp
L RF_Module:ESP32-WROOM-32 U1
U 1 1 5E47CC22
P 1855 4785
F 0 "U1" H 1435 6170 50  0000 C CNN
F 1 "ESP32-WROOM-32" H 2295 6190 50  0000 C CNN
F 2 "RF_Module:ESP32-WROOM-32" H 1855 3285 50  0001 C CNN
F 3 "https://www.espressif.com/sites/default/files/documentation/esp32-wroom-32_datasheet_en.pdf" H 1555 4835 50  0001 C CNN
	1    1855 4785
	1    0    0    -1  
$EndComp
$Comp
L Device:R_Small R11
U 1 1 5E4805A1
P 11025 5705
F 0 "R11" V 10829 5705 50  0000 C CNN
F 1 "0.01R" V 10920 5705 50  0000 C CNN
F 2 "Resistor_SMD:R_2512_6332Metric" H 11025 5705 50  0001 C CNN
F 3 "~" H 11025 5705 50  0001 C CNN
	1    11025 5705
	0    1    1    0   
$EndComp
$Comp
L Sensor_Motion:MPU-6050 U4
U 1 1 5E4819F1
P 7860 5440
F 0 "U4" H 7530 4825 50  0000 C CNN
F 1 "MPU-6050" H 8180 4855 50  0000 C CNN
F 2 "Sensor_Motion:InvenSense_QFN-24_4x4mm_P0.5mm" H 7860 4640 50  0001 C CNN
F 3 "https://store.invensense.com/datasheets/invensense/MPU-6050_DataSheet_V3%204.pdf" H 7860 5290 50  0001 C CNN
	1    7860 5440
	1    0    0    -1  
$EndComp
$Comp
L Switch:SW_Push SW1
U 1 1 5E484D63
P 14835 8650
F 0 "SW1" V 14760 8485 50  0000 L CNN
F 1 "User1" V 14915 8430 50  0000 L CNN
F 2 "Pauls_KiCAD_Libraries:SMD_Switch_5x3" H 14835 8850 50  0001 C CNN
F 3 "~" H 14835 8850 50  0001 C CNN
	1    14835 8650
	0    1    1    0   
$EndComp
$Comp
L Switch:SW_Push SW2
U 1 1 5E4854D8
P 15085 8650
F 0 "SW2" V 15025 8720 50  0000 L CNN
F 1 "User2" V 15140 8710 50  0000 L CNN
F 2 "Pauls_KiCAD_Libraries:SMD_Switch_5x3" H 15085 8850 50  0001 C CNN
F 3 "~" H 15085 8850 50  0001 C CNN
	1    15085 8650
	0    1    1    0   
$EndComp
$Comp
L Regulator_Linear:AMS1117-3.3 U7
U 1 1 5E4887A8
P 11605 5705
F 0 "U7" H 11605 5947 50  0000 C CNN
F 1 "AMS1117-3.3" H 11605 5856 50  0000 C CNN
F 2 "Package_TO_SOT_SMD:SOT-223-3_TabPin2" H 11605 5905 50  0001 C CNN
F 3 "http://www.advanced-monolithic.com/pdf/ds1117.pdf" H 11705 5455 50  0001 C CNN
	1    11605 5705
	1    0    0    -1  
$EndComp
$Comp
L Switch:SW_Push Boot1
U 1 1 5E48ECA0
P 3980 1530
F 0 "Boot1" H 3980 1815 50  0000 C CNN
F 1 "Boot" H 3980 1724 50  0000 C CNN
F 2 "Pauls_KiCAD_Libraries:SMD_Switch_5x3" H 3980 1730 50  0001 C CNN
F 3 "~" H 3980 1730 50  0001 C CNN
	1    3980 1530
	0    1    1    0   
$EndComp
$Comp
L Device:C_Small C1
U 1 1 5E494239
P 1340 3185
F 0 "C1" H 1215 3260 50  0000 L CNN
F 1 "100nF" H 1095 3115 50  0000 L CNN
F 2 "Capacitor_SMD:C_0805_2012Metric" H 1340 3185 50  0001 C CNN
F 3 "~" H 1340 3185 50  0001 C CNN
	1    1340 3185
	1    0    0    -1  
$EndComp
$Comp
L Device:C_Small C2
U 1 1 5E494FBF
P 1545 3180
F 0 "C2" H 1637 3226 50  0000 L CNN
F 1 "4.7uF" H 1637 3135 50  0000 L CNN
F 2 "Capacitor_SMD:C_0805_2012Metric" H 1545 3180 50  0001 C CNN
F 3 "~" H 1545 3180 50  0001 C CNN
	1    1545 3180
	1    0    0    -1  
$EndComp
$Comp
L Device:R_Small R12
U 1 1 5E495A09
P 13805 2915
F 0 "R12" V 13609 2915 50  0000 C CNN
F 1 "150" V 13700 2915 50  0000 C CNN
F 2 "Resistor_SMD:R_0805_2012Metric" H 13805 2915 50  0001 C CNN
F 3 "~" H 13805 2915 50  0001 C CNN
	1    13805 2915
	0    1    1    0   
$EndComp
$Comp
L Device:R_Small R14
U 1 1 5E4979B8
P 13955 3115
F 0 "R14" H 14014 3161 50  0000 L CNN
F 1 "10K" H 14014 3070 50  0000 L CNN
F 2 "Resistor_SMD:R_0805_2012Metric" H 13955 3115 50  0001 C CNN
F 3 "~" H 13955 3115 50  0001 C CNN
	1    13955 3115
	1    0    0    -1  
$EndComp
$Comp
L Device:C_Small C5
U 1 1 5E49989B
P 7540 4600
F 0 "C5" V 7311 4600 50  0000 C CNN
F 1 "100nF" V 7402 4600 50  0000 C CNN
F 2 "Capacitor_SMD:C_0805_2012Metric" H 7540 4600 50  0001 C CNN
F 3 "~" H 7540 4600 50  0001 C CNN
	1    7540 4600
	0    1    1    0   
$EndComp
$Comp
L Connector:Conn_01x03_Male J2
U 1 1 5E49D222
P 2840 2035
F 0 "J2" H 2890 2220 50  0000 R CNN
F 1 "ESP_Prog" H 3020 1805 50  0000 R CNN
F 2 "Connector_PinHeader_1.27mm:PinHeader_1x03_P1.27mm_Vertical" H 2840 2035 50  0001 C CNN
F 3 "~" H 2840 2035 50  0001 C CNN
	1    2840 2035
	-1   0    0    1   
$EndComp
Text GLabel 13635 2915 0    50   Input ~ 0
USB1_Control
$Comp
L power:+3.3V #PWR04
U 1 1 5E4C1F8C
P 1855 3020
F 0 "#PWR04" H 1855 2870 50  0001 C CNN
F 1 "+3.3V" H 1870 3193 50  0000 C CNN
F 2 "" H 1855 3020 50  0001 C CNN
F 3 "" H 1855 3020 50  0001 C CNN
	1    1855 3020
	1    0    0    -1  
$EndComp
$Comp
L power:+5V #PWR050
U 1 1 5E4CD108
P 14690 1880
F 0 "#PWR050" H 14690 1730 50  0001 C CNN
F 1 "+5V" H 14705 2053 50  0000 C CNN
F 2 "" H 14690 1880 50  0001 C CNN
F 3 "" H 14690 1880 50  0001 C CNN
	1    14690 1880
	1    0    0    -1  
$EndComp
$Comp
L Pauls_Symbol_Library:Transistor_MOSFET-N_AO3401A Q2
U 1 1 5E4CE1E8
P 14270 2915
F 0 "Q2" H 14424 2961 50  0000 L CNN
F 1 "MOSFET-N_AO3401A" H 14424 2870 50  0000 L CNN
F 2 "Package_TO_SOT_SMD:SOT-23" H 14420 2840 50  0001 L CIN
F 3 "" H 14220 2915 50  0001 L CNN
	1    14270 2915
	1    0    0    -1  
$EndComp
$Comp
L power:GND #PWR048
U 1 1 5E4D1BD7
P 14320 3310
F 0 "#PWR048" H 14320 3060 50  0001 C CNN
F 1 "GND" H 14325 3137 50  0000 C CNN
F 2 "" H 14320 3310 50  0001 C CNN
F 3 "" H 14320 3310 50  0001 C CNN
	1    14320 3310
	1    0    0    -1  
$EndComp
Wire Wire Line
	14020 2915 13955 2915
Wire Wire Line
	13955 2915 13955 3015
Connection ~ 13955 2915
Wire Wire Line
	13955 2915 13905 2915
Wire Wire Line
	14320 2580 14320 2640
Wire Wire Line
	14320 3115 14320 3255
Wire Wire Line
	13955 3215 13955 3255
Wire Wire Line
	13955 3255 14320 3255
Connection ~ 14320 3255
Wire Wire Line
	14320 3255 14320 3310
Wire Wire Line
	14220 2580 14220 2640
Wire Wire Line
	14220 2640 14320 2640
Connection ~ 14320 2640
Wire Wire Line
	14320 2640 14320 2715
Wire Wire Line
	14620 1980 14690 1980
Text Notes 14355 3145 0    50   ~ 0
Rdson = 45mOhm
Text Notes 9650 1465 0    50   ~ 0
LOW SIDE SWITCH # 1\n
Wire Wire Line
	13635 2915 13705 2915
$Comp
L Device:C_Small C18
U 1 1 5E50F259
P 10880 5900
F 0 "C18" H 10740 5975 50  0000 L CNN
F 1 "10uF" H 10780 5815 50  0000 L CNN
F 2 "Capacitor_SMD:C_0805_2012Metric" H 10880 5900 50  0001 C CNN
F 3 "~" H 10880 5900 50  0001 C CNN
	1    10880 5900
	1    0    0    -1  
$EndComp
$Comp
L Device:C_Small C17
U 1 1 5E50F263
P 10690 5905
F 0 "C17" H 10550 5975 50  0000 L CNN
F 1 "100nF" H 10435 5840 50  0000 L CNN
F 2 "Capacitor_SMD:C_0805_2012Metric" H 10690 5905 50  0001 C CNN
F 3 "~" H 10690 5905 50  0001 C CNN
	1    10690 5905
	1    0    0    -1  
$EndComp
$Comp
L power:GND #PWR036
U 1 1 5E5134BC
P 10690 6065
F 0 "#PWR036" H 10690 5815 50  0001 C CNN
F 1 "GND" H 10695 5892 50  0000 C CNN
F 2 "" H 10690 6065 50  0001 C CNN
F 3 "" H 10690 6065 50  0001 C CNN
	1    10690 6065
	1    0    0    -1  
$EndComp
$Comp
L power:+5V #PWR040
U 1 1 5E52162C
P 11210 5640
F 0 "#PWR040" H 11210 5490 50  0001 C CNN
F 1 "+5V" H 11255 5790 50  0000 C CNN
F 2 "" H 11210 5640 50  0001 C CNN
F 3 "" H 11210 5640 50  0001 C CNN
	1    11210 5640
	1    0    0    -1  
$EndComp
Wire Wire Line
	10690 5705 10690 5805
Connection ~ 10690 5705
Wire Wire Line
	10690 5705 10880 5705
Wire Wire Line
	10880 5800 10880 5705
Connection ~ 10880 5705
Wire Wire Line
	10880 5705 10925 5705
Wire Wire Line
	10690 6005 10690 6065
Wire Wire Line
	10880 6000 10880 6065
Wire Wire Line
	10880 6065 10690 6065
Wire Wire Line
	11125 5705 11155 5705
Wire Wire Line
	11210 5640 11210 5705
Connection ~ 11210 5705
Wire Wire Line
	11210 5705 11300 5705
$Comp
L Device:C_Small C23
U 1 1 5E545F4E
P 12180 5840
F 0 "C23" H 12272 5886 50  0000 L CNN
F 1 "10uF" H 12272 5795 50  0000 L CNN
F 2 "Capacitor_SMD:C_0805_2012Metric" H 12180 5840 50  0001 C CNN
F 3 "~" H 12180 5840 50  0001 C CNN
	1    12180 5840
	1    0    0    -1  
$EndComp
$Comp
L Device:C_Small C22
U 1 1 5E5467F5
P 12000 5840
F 0 "C22" H 11860 5910 50  0000 L CNN
F 1 "100nF" H 11745 5775 50  0000 L CNN
F 2 "Capacitor_SMD:C_0805_2012Metric" H 12000 5840 50  0001 C CNN
F 3 "~" H 12000 5840 50  0001 C CNN
	1    12000 5840
	1    0    0    -1  
$EndComp
Wire Wire Line
	11905 5705 12000 5705
Wire Wire Line
	12000 5705 12000 5740
Wire Wire Line
	12000 5705 12180 5705
Connection ~ 12000 5705
Wire Wire Line
	12180 5705 12180 5740
Wire Wire Line
	10880 6065 11155 6065
Wire Wire Line
	11605 6065 11605 6005
Connection ~ 10880 6065
Wire Wire Line
	11605 6065 12000 6065
Wire Wire Line
	12000 6065 12000 6000
Connection ~ 11605 6065
Wire Wire Line
	12180 5940 12180 6000
Wire Wire Line
	12180 6000 12000 6000
Connection ~ 12000 6000
Wire Wire Line
	12000 6000 12000 5940
$Comp
L power:+3.3V #PWR045
U 1 1 5E55D0B2
P 12180 5625
F 0 "#PWR045" H 12180 5475 50  0001 C CNN
F 1 "+3.3V" H 12195 5798 50  0000 C CNN
F 2 "" H 12180 5625 50  0001 C CNN
F 3 "" H 12180 5625 50  0001 C CNN
	1    12180 5625
	1    0    0    -1  
$EndComp
Connection ~ 12180 5705
Wire Wire Line
	12180 5625 12180 5705
Text GLabel 13485 8170 2    50   Input ~ 0
LED_User1
Text GLabel 13480 8270 2    50   Input ~ 0
LED_User2
Text GLabel 13495 8470 2    50   Input ~ 0
LED_User4
Text GLabel 13490 8370 2    50   Input ~ 0
LED_User3
Wire Wire Line
	13410 8170 13485 8170
Wire Wire Line
	13410 8270 13480 8270
Wire Wire Line
	13410 8370 13490 8370
Wire Wire Line
	13410 8470 13495 8470
Text Notes 11610 895  0    50   ~ 0
NOTE: a string of USB 'Fairy' lights can draw 760mA!\n  While these look like USB ports, they have no data\n  and work by PWM switching the USB VCC on/off!\n
Text GLabel 2630 5585 2    50   Input ~ 0
LED_User1
Text GLabel 2630 5685 2    50   Input ~ 0
LED_User2
Text GLabel 2630 5485 2    50   Input ~ 0
LED_User4
Text GLabel 2630 5385 2    50   Input ~ 0
LED_User3
Text GLabel 2625 4885 2    50   Input ~ 0
RGB_LED1
Text GLabel 2560 4085 2    50   Input ~ 0
USB1_Control
Text GLabel 2560 4285 2    50   Input ~ 0
USB3_Control
Text Notes 8795 2970 0    50   ~ 0
5V in
Text Notes 8790 2870 0    50   ~ 0
Data
Text Notes 8795 2755 0    50   ~ 0
GND
$Comp
L Connector:Conn_01x03_Male J6
U 1 1 5E484239
P 8755 2830
F 0 "J6" H 8720 2615 50  0000 R CNN
F 1 "RGB_Out2" H 8855 3035 50  0000 R CNN
F 2 "Connector_JST:JST_PH_S3B-PH-SM4-TB_1x03-1MP_P2.00mm_Horizontal" H 8755 2830 50  0001 C CNN
F 3 "~" H 8755 2830 50  0001 C CNN
	1    8755 2830
	-1   0    0    -1  
$EndComp
Wire Notes Line
	12635 6595 15740 6595
Wire Notes Line
	15740 6595 15740 3945
Wire Notes Line
	15740 3945 12635 3945
Wire Notes Line
	12635 3945 12635 6595
Text Notes 10185 5925 2    50   ~ 0
USB 5V Power IN\nSee UART
Wire Notes Line
	12635 3885 15735 3885
Wire Notes Line
	15735 3885 15735 1160
Wire Notes Line
	15735 1160 12635 1160
Wire Notes Line
	12635 1160 12635 3885
Text Notes 12865 1495 0    50   ~ 0
LOW SIDE SWITCH # 2\n
Wire Notes Line
	12560 3885 12560 1160
Wire Notes Line
	12560 1160 9410 1160
Wire Notes Line
	9410 1160 9410 3890
Wire Notes Line
	9410 3890 12560 3890
Text Notes 12915 4305 0    50   ~ 0
LOW SIDE SWITCH # 3\n
$Comp
L Device:C_Small C16
U 1 1 5E882961
P 10540 5175
F 0 "C16" H 10400 5245 50  0000 L CNN
F 1 "100nF" H 10285 5110 50  0000 L CNN
F 2 "Capacitor_SMD:C_0805_2012Metric" H 10540 5175 50  0001 C CNN
F 3 "~" H 10540 5175 50  0001 C CNN
	1    10540 5175
	1    0    0    -1  
$EndComp
$Comp
L power:+3.3V #PWR033
U 1 1 5E88296B
P 10540 4925
F 0 "#PWR033" H 10540 4775 50  0001 C CNN
F 1 "+3.3V" H 10555 5098 50  0000 C CNN
F 2 "" H 10540 4925 50  0001 C CNN
F 3 "" H 10540 4925 50  0001 C CNN
	1    10540 4925
	1    0    0    -1  
$EndComp
$Comp
L power:GND #PWR034
U 1 1 5E88F10A
P 10540 5340
F 0 "#PWR034" H 10540 5090 50  0001 C CNN
F 1 "GND" H 10545 5167 50  0000 C CNN
F 2 "" H 10540 5340 50  0001 C CNN
F 3 "" H 10540 5340 50  0001 C CNN
	1    10540 5340
	1    0    0    -1  
$EndComp
Wire Wire Line
	11155 5410 11155 5705
Connection ~ 11155 5705
Wire Wire Line
	11155 5705 11210 5705
$Comp
L power:GND #PWR043
U 1 1 5E8BF468
P 11465 5110
F 0 "#PWR043" H 11465 4860 50  0001 C CNN
F 1 "GND" H 11550 5100 50  0000 C CNN
F 2 "" H 11465 5110 50  0001 C CNN
F 3 "" H 11465 5110 50  0001 C CNN
	1    11465 5110
	1    0    0    -1  
$EndComp
Wire Notes Line
	12590 6595 12590 3950
Wire Notes Line
	12590 3950 9405 3950
Wire Notes Line
	9405 3950 9405 6595
Wire Notes Line
	9405 6595 12590 6595
Text Notes 11215 6425 0    50   ~ 0
Input Power Supply Monitoring
$Comp
L Device:R_Small R17
U 1 1 5E959166
P 15085 8225
F 0 "R17" H 15144 8271 50  0000 L CNN
F 1 "10K" H 15144 8180 50  0000 L CNN
F 2 "Resistor_SMD:R_0805_2012Metric" H 15085 8225 50  0001 C CNN
F 3 "~" H 15085 8225 50  0001 C CNN
	1    15085 8225
	1    0    0    -1  
$EndComp
$Comp
L Device:R_Small R16
U 1 1 5E95B98C
P 14835 8235
F 0 "R16" H 14894 8281 50  0000 L CNN
F 1 "10K" H 14894 8190 50  0000 L CNN
F 2 "Resistor_SMD:R_0805_2012Metric" H 14835 8235 50  0001 C CNN
F 3 "~" H 14835 8235 50  0001 C CNN
	1    14835 8235
	1    0    0    -1  
$EndComp
Wire Wire Line
	14835 8335 14835 8395
Wire Wire Line
	15085 8325 15085 8390
$Comp
L power:+3.3V #PWR052
U 1 1 5E9756C6
P 15085 8005
F 0 "#PWR052" H 15085 7855 50  0001 C CNN
F 1 "+3.3V" H 15100 8178 50  0000 C CNN
F 2 "" H 15085 8005 50  0001 C CNN
F 3 "" H 15085 8005 50  0001 C CNN
	1    15085 8005
	1    0    0    -1  
$EndComp
Wire Wire Line
	15085 8125 15085 8065
Wire Wire Line
	14835 8135 14835 8065
Wire Wire Line
	14835 8065 15085 8065
Connection ~ 15085 8065
Wire Wire Line
	15085 8065 15085 8005
$Comp
L power:GND #PWR053
U 1 1 5E9909AC
P 15085 8940
F 0 "#PWR053" H 15085 8690 50  0001 C CNN
F 1 "GND" H 15090 8767 50  0000 C CNN
F 2 "" H 15085 8940 50  0001 C CNN
F 3 "" H 15085 8940 50  0001 C CNN
	1    15085 8940
	1    0    0    -1  
$EndComp
Wire Wire Line
	15085 8850 15085 8900
Wire Wire Line
	14835 8850 14835 8900
Wire Wire Line
	14835 8900 15085 8900
Connection ~ 15085 8900
Wire Wire Line
	15085 8900 15085 8940
Text GLabel 14750 8395 0    50   Input ~ 0
SW_User1
Text GLabel 15230 8390 2    50   Input ~ 0
SW_User2
Wire Wire Line
	14750 8395 14835 8395
Connection ~ 14835 8395
Wire Wire Line
	14835 8395 14835 8450
Wire Wire Line
	15085 8390 15230 8390
Connection ~ 15085 8390
Wire Wire Line
	15085 8390 15085 8450
Wire Wire Line
	1855 3385 1855 3025
Wire Wire Line
	1545 3080 1545 3025
Wire Wire Line
	1545 3025 1855 3025
Connection ~ 1855 3025
Wire Wire Line
	1855 3025 1855 3020
Wire Wire Line
	1340 3085 1340 3025
Wire Wire Line
	1340 3025 1545 3025
Connection ~ 1545 3025
$Comp
L power:GND #PWR03
U 1 1 5EA096C3
P 1125 3340
F 0 "#PWR03" H 1125 3090 50  0001 C CNN
F 1 "GND" H 1015 3230 50  0000 C CNN
F 2 "" H 1125 3340 50  0001 C CNN
F 3 "" H 1125 3340 50  0001 C CNN
	1    1125 3340
	1    0    0    -1  
$EndComp
Wire Wire Line
	1125 3340 1125 3320
Wire Wire Line
	1125 3320 1340 3320
Wire Wire Line
	1545 3320 1545 3280
Wire Wire Line
	1340 3285 1340 3320
Connection ~ 1340 3320
Wire Wire Line
	1340 3320 1545 3320
$Comp
L power:GND #PWR05
U 1 1 5EA2A9BD
P 1855 6260
F 0 "#PWR05" H 1855 6010 50  0001 C CNN
F 1 "GND" H 1860 6087 50  0000 C CNN
F 2 "" H 1855 6260 50  0001 C CNN
F 3 "" H 1855 6260 50  0001 C CNN
	1    1855 6260
	1    0    0    -1  
$EndComp
Wire Wire Line
	1855 6185 1855 6260
$Comp
L power:+3.3V #PWR022
U 1 1 5EA3EBD1
P 7960 4510
F 0 "#PWR022" H 7960 4360 50  0001 C CNN
F 1 "+3.3V" H 7975 4683 50  0000 C CNN
F 2 "" H 7960 4510 50  0001 C CNN
F 3 "" H 7960 4510 50  0001 C CNN
	1    7960 4510
	1    0    0    -1  
$EndComp
Wire Wire Line
	7640 4600 7760 4600
Wire Wire Line
	7760 4740 7760 4600
$Comp
L power:GND #PWR021
U 1 1 5EA746EF
P 7860 6210
F 0 "#PWR021" H 7860 5960 50  0001 C CNN
F 1 "GND" H 7865 6037 50  0000 C CNN
F 2 "" H 7860 6210 50  0001 C CNN
F 3 "" H 7860 6210 50  0001 C CNN
	1    7860 6210
	1    0    0    -1  
$EndComp
Wire Wire Line
	7860 6140 7860 6210
$Comp
L power:GND #PWR018
U 1 1 5EA866BC
P 7375 4665
F 0 "#PWR018" H 7375 4415 50  0001 C CNN
F 1 "GND" H 7380 4492 50  0000 C CNN
F 2 "" H 7375 4665 50  0001 C CNN
F 3 "" H 7375 4665 50  0001 C CNN
	1    7375 4665
	1    0    0    -1  
$EndComp
Wire Wire Line
	7440 4600 7375 4600
Wire Wire Line
	7375 4600 7375 4665
Text GLabel 7040 5140 0    50   Input ~ 0
i2c_SDA
Text GLabel 7045 5240 0    50   Input ~ 0
i2c_SCL
Wire Wire Line
	7045 5240 7160 5240
Wire Wire Line
	7160 5140 7040 5140
Wire Wire Line
	7960 4510 7960 4605
$Comp
L Device:C_Small C8
U 1 1 5EAE3957
P 8180 4605
F 0 "C8" V 8380 4550 50  0000 C CNN
F 1 "100nF" V 8290 4550 50  0000 C CNN
F 2 "Capacitor_SMD:C_0805_2012Metric" H 8180 4605 50  0001 C CNN
F 3 "~" H 8180 4605 50  0001 C CNN
	1    8180 4605
	0    -1   -1   0   
$EndComp
Wire Wire Line
	8080 4605 7960 4605
$Comp
L power:GND #PWR026
U 1 1 5EAE3962
P 8345 4670
F 0 "#PWR026" H 8345 4420 50  0001 C CNN
F 1 "GND" H 8350 4497 50  0000 C CNN
F 2 "" H 8345 4670 50  0001 C CNN
F 3 "" H 8345 4670 50  0001 C CNN
	1    8345 4670
	1    0    0    -1  
$EndComp
Wire Wire Line
	8280 4605 8345 4605
Wire Wire Line
	8345 4605 8345 4670
Connection ~ 7960 4605
Wire Wire Line
	7960 4605 7960 4740
$Comp
L Device:C_Small C14
U 1 1 5EB0AB8B
P 8630 5875
F 0 "C14" H 8780 5810 50  0000 R CNN
F 1 "100nF" H 8880 5945 50  0000 R CNN
F 2 "Capacitor_SMD:C_0805_2012Metric" H 8630 5875 50  0001 C CNN
F 3 "~" H 8630 5875 50  0001 C CNN
	1    8630 5875
	-1   0    0    1   
$EndComp
$Comp
L Device:C_Small C15
U 1 1 5EB0B48A
P 8800 5875
F 0 "C15" H 8892 5921 50  0000 L CNN
F 1 "100nF" H 8892 5830 50  0000 L CNN
F 2 "Capacitor_SMD:C_0805_2012Metric" H 8800 5875 50  0001 C CNN
F 3 "~" H 8800 5875 50  0001 C CNN
	1    8800 5875
	1    0    0    -1  
$EndComp
Wire Wire Line
	8560 5740 8630 5740
Wire Wire Line
	8630 5740 8630 5775
Wire Wire Line
	8560 5640 8800 5640
Wire Wire Line
	8800 5640 8800 5775
$Comp
L power:GND #PWR030
U 1 1 5EB330C3
P 8800 6035
F 0 "#PWR030" H 8800 5785 50  0001 C CNN
F 1 "GND" H 8805 5862 50  0000 C CNN
F 2 "" H 8800 6035 50  0001 C CNN
F 3 "" H 8800 6035 50  0001 C CNN
	1    8800 6035
	1    0    0    -1  
$EndComp
Wire Wire Line
	8800 5975 8800 6005
Wire Wire Line
	8800 6005 8630 6005
Wire Wire Line
	8630 6005 8630 5975
Connection ~ 8800 6005
Wire Wire Line
	8800 6005 8800 6035
NoConn ~ 8560 5140
NoConn ~ 8560 5340
NoConn ~ 8560 5440
NoConn ~ 7160 5640
NoConn ~ 7160 5740
$Comp
L power:+3.3V #PWR020
U 1 1 5EBB947E
P 7760 4505
F 0 "#PWR020" H 7760 4355 50  0001 C CNN
F 1 "+3.3V" H 7720 4675 50  0000 C CNN
F 2 "" H 7760 4505 50  0001 C CNN
F 3 "" H 7760 4505 50  0001 C CNN
	1    7760 4505
	1    0    0    -1  
$EndComp
Wire Wire Line
	7760 4600 7760 4505
Connection ~ 7760 4600
$Comp
L power:+3.3V #PWR012
U 1 1 5EBE1944
P 6630 5340
F 0 "#PWR012" H 6630 5190 50  0001 C CNN
F 1 "+3.3V" H 6485 5360 50  0000 C CNN
F 2 "" H 6630 5340 50  0001 C CNN
F 3 "" H 6630 5340 50  0001 C CNN
	1    6630 5340
	1    0    0    -1  
$EndComp
Wire Notes Line
	9305 6595 9305 4135
Wire Notes Line
	9305 4135 6225 4135
Wire Notes Line
	6225 4135 6225 6605
Wire Notes Line
	6225 6605 9305 6605
Text Notes 8550 4395 0    50   ~ 0
6DOF Sensor
Wire Notes Line
	9290 3870 6215 3870
Text Notes 6290 1370 0    50   ~ 0
RGB LED Data Voltage Translator
$Comp
L power:GND #PWR047
U 1 1 5EC539C4
P 12185 8715
F 0 "#PWR047" H 12185 8465 50  0001 C CNN
F 1 "GND" H 12190 8542 50  0000 C CNN
F 2 "" H 12185 8715 50  0001 C CNN
F 3 "" H 12185 8715 50  0001 C CNN
	1    12185 8715
	1    0    0    -1  
$EndComp
Wire Wire Line
	12185 8640 12185 8715
$Comp
L power:GND #PWR046
U 1 1 5EC68509
P 12180 8025
F 0 "#PWR046" H 12180 7775 50  0001 C CNN
F 1 "GND" H 12185 7852 50  0000 C CNN
F 2 "" H 12180 8025 50  0001 C CNN
F 3 "" H 12180 8025 50  0001 C CNN
	1    12180 8025
	1    0    0    -1  
$EndComp
Wire Wire Line
	12180 7950 12180 8025
Wire Notes Line
	11920 6950 15720 6950
Wire Notes Line
	15720 6950 15720 9570
Wire Notes Line
	15720 9570 11915 9570
Wire Notes Line
	11915 9570 11915 6950
Text Notes 12375 7235 0    50   ~ 0
User Input - Output
Text GLabel 2630 5785 2    50   Input ~ 0
SW_User1
Text GLabel 2630 5885 2    50   Input ~ 0
SW_User2
Text GLabel 2630 5085 2    50   Input ~ 0
i2c_SDA
Text GLabel 2625 4985 2    50   Input ~ 0
i2c_SCL
Wire Wire Line
	2455 4985 2625 4985
Wire Wire Line
	2455 5085 2630 5085
Wire Wire Line
	2455 5485 2630 5485
Wire Wire Line
	2455 5585 2630 5585
Wire Wire Line
	2455 5685 2630 5685
Wire Wire Line
	2455 5785 2630 5785
Wire Wire Line
	2455 5885 2630 5885
Wire Wire Line
	2455 5385 2630 5385
NoConn ~ 1255 3785
NoConn ~ 1255 5285
NoConn ~ 1255 5185
NoConn ~ 1255 5085
NoConn ~ 1255 4985
NoConn ~ 1255 4885
NoConn ~ 1255 4785
Text Notes 3055 5860 0    50   ~ 0
} Inputs
Text Notes 3085 5480 0    50   ~ 0
} Output
Text Notes 3095 5585 0    50   ~ 0
} Output
Text Notes 3060 4915 0    50   ~ 0
- Output
Text Notes 9720 11070 0    50   ~ 0
* Could add an i2C based TSL25911  LUX sensor IC
$Comp
L power:GND #PWR031
U 1 1 5EF46C83
P 9600 7855
F 0 "#PWR031" H 9600 7605 50  0001 C CNN
F 1 "GND" H 9605 7682 50  0000 C CNN
F 2 "" H 9600 7855 50  0001 C CNN
F 3 "" H 9600 7855 50  0001 C CNN
	1    9600 7855
	1    0    0    -1  
$EndComp
$Comp
L power:+3.3V #PWR035
U 1 1 5EF47975
P 10635 7420
F 0 "#PWR035" H 10635 7270 50  0001 C CNN
F 1 "+3.3V" H 10650 7593 50  0000 C CNN
F 2 "" H 10635 7420 50  0001 C CNN
F 3 "" H 10635 7420 50  0001 C CNN
	1    10635 7420
	1    0    0    -1  
$EndComp
Text GLabel 10690 7535 2    50   Input ~ 0
i2s_CLK
Text GLabel 10685 7735 2    50   Input ~ 0
i2s_SDA
Wire Wire Line
	10635 7635 10635 7430
Wire Wire Line
	9680 7735 9600 7735
Wire Wire Line
	9600 7735 9600 7855
Wire Wire Line
	9680 7635 9600 7635
Wire Wire Line
	9600 7635 9600 7735
Connection ~ 9600 7735
Text GLabel 9575 7535 0    50   Input ~ 0
i2s_WS
Wire Wire Line
	9575 7535 9680 7535
Text GLabel 2560 3985 2    50   Input ~ 0
i2s_SDA
Text GLabel 3340 3710 2    50   Input ~ 0
i2s_WS
Wire Wire Line
	2455 3985 2560 3985
Wire Wire Line
	2455 4285 2560 4285
Wire Wire Line
	2455 4085 2560 4085
Wire Wire Line
	2455 4885 2625 4885
Wire Notes Line
	11720 9570 11720 6950
Wire Notes Line
	11720 6950 8990 6950
Wire Notes Line
	8990 6950 8990 9580
Wire Notes Line
	8990 9580 11720 9580
Text Notes 9080 7080 0    50   ~ 0
i2S Audio Input
$Comp
L Device:C_Small C19
U 1 1 5F1F2655
P 11090 7430
F 0 "C19" H 10950 7500 50  0000 L CNN
F 1 "100nF" H 10835 7365 50  0000 L CNN
F 2 "Capacitor_SMD:C_0805_2012Metric" H 11090 7430 50  0001 C CNN
F 3 "~" H 11090 7430 50  0001 C CNN
	1    11090 7430
	0    1    1    0   
$EndComp
$Comp
L power:GND #PWR041
U 1 1 5F1F3868
P 11240 7555
F 0 "#PWR041" H 11240 7305 50  0001 C CNN
F 1 "GND" H 11245 7382 50  0000 C CNN
F 2 "" H 11240 7555 50  0001 C CNN
F 3 "" H 11240 7555 50  0001 C CNN
	1    11240 7555
	1    0    0    -1  
$EndComp
Wire Wire Line
	10990 7430 10635 7430
Connection ~ 10635 7430
Wire Wire Line
	10635 7430 10635 7420
Wire Wire Line
	11190 7430 11240 7430
Wire Wire Line
	11240 7430 11240 7555
$Comp
L power:GND #PWR06
U 1 1 5E52F33F
P 2575 2290
F 0 "#PWR06" H 2575 2040 50  0001 C CNN
F 1 "GND" H 2580 2117 50  0000 C CNN
F 2 "" H 2575 2290 50  0001 C CNN
F 3 "" H 2575 2290 50  0001 C CNN
	1    2575 2290
	1    0    0    -1  
$EndComp
$Comp
L Device:R_Small R1
U 1 1 5E52F76E
P 2635 3885
F 0 "R1" V 2630 3840 50  0000 L CNN
F 1 "450R" V 2695 3785 50  0000 L CNN
F 2 "Resistor_SMD:R_0603_1608Metric" H 2635 3885 50  0001 C CNN
F 3 "~" H 2635 3885 50  0001 C CNN
	1    2635 3885
	0    -1   -1   0   
$EndComp
Text GLabel 2215 2035 0    50   Input ~ 0
TxD
Text GLabel 2215 1935 0    50   Input ~ 0
RxD
Wire Wire Line
	2575 2290 2575 2135
Wire Wire Line
	2575 2135 2640 2135
Text GLabel 2785 3885 2    50   Input ~ 0
TxD
Text GLabel 2535 3685 2    50   Input ~ 0
RxD
Wire Wire Line
	2455 3685 2535 3685
Wire Wire Line
	2455 3885 2535 3885
$Comp
L power:GND #PWR09
U 1 1 5E66D07A
P 3980 1815
F 0 "#PWR09" H 3980 1565 50  0001 C CNN
F 1 "GND" H 3985 1642 50  0000 C CNN
F 2 "" H 3980 1815 50  0001 C CNN
F 3 "" H 3980 1815 50  0001 C CNN
	1    3980 1815
	1    0    0    -1  
$EndComp
$Comp
L power:+3.3V #PWR08
U 1 1 5E66D40E
P 3980 970
F 0 "#PWR08" H 3980 820 50  0001 C CNN
F 1 "+3.3V" H 3995 1143 50  0000 C CNN
F 2 "" H 3980 970 50  0001 C CNN
F 3 "" H 3980 970 50  0001 C CNN
	1    3980 970 
	1    0    0    -1  
$EndComp
$Comp
L Device:C_Small C3
U 1 1 5E66DB6D
P 3820 1505
F 0 "C3" H 3695 1580 50  0000 L CNN
F 1 "100nF" H 3575 1435 50  0000 L CNN
F 2 "Capacitor_SMD:C_0805_2012Metric" H 3820 1505 50  0001 C CNN
F 3 "~" H 3820 1505 50  0001 C CNN
	1    3820 1505
	1    0    0    -1  
$EndComp
$Comp
L Device:R_Small R3
U 1 1 5E66E0A1
P 3980 1155
F 0 "R3" H 4039 1201 50  0000 L CNN
F 1 "10K" H 4039 1110 50  0000 L CNN
F 2 "Resistor_SMD:R_0805_2012Metric" H 3980 1155 50  0001 C CNN
F 3 "~" H 3980 1155 50  0001 C CNN
	1    3980 1155
	1    0    0    -1  
$EndComp
Wire Wire Line
	3980 1815 3980 1770
Wire Wire Line
	3820 1605 3820 1770
Wire Wire Line
	3820 1770 3980 1770
Connection ~ 3980 1770
Wire Wire Line
	3980 1770 3980 1730
Wire Wire Line
	3980 1255 3980 1290
Wire Wire Line
	3820 1405 3820 1290
Wire Wire Line
	3820 1290 3980 1290
Connection ~ 3980 1290
Wire Wire Line
	3980 1290 3980 1330
Wire Wire Line
	3980 1055 3980 970 
$Comp
L Device:R_Small R4
U 1 1 5E707C59
P 4210 1290
F 0 "R4" V 4140 1330 50  0000 L CNN
F 1 "450R" V 4280 1060 50  0000 L CNN
F 2 "Resistor_SMD:R_0805_2012Metric" H 4210 1290 50  0001 C CNN
F 3 "~" H 4210 1290 50  0001 C CNN
	1    4210 1290
	0    1    1    0   
$EndComp
Wire Wire Line
	3980 1290 4110 1290
Wire Wire Line
	4310 1290 4375 1290
$Comp
L Switch:SW_Push Reset1
U 1 1 5E7480C3
P 5085 1570
F 0 "Reset1" H 5085 1855 50  0000 C CNN
F 1 "Reset" H 5085 1764 50  0000 C CNN
F 2 "Pauls_KiCAD_Libraries:SMD_Switch_5x3" H 5085 1770 50  0001 C CNN
F 3 "~" H 5085 1770 50  0001 C CNN
	1    5085 1570
	0    1    1    0   
$EndComp
$Comp
L power:GND #PWR011
U 1 1 5E7480CD
P 5085 1855
F 0 "#PWR011" H 5085 1605 50  0001 C CNN
F 1 "GND" H 5090 1682 50  0000 C CNN
F 2 "" H 5085 1855 50  0001 C CNN
F 3 "" H 5085 1855 50  0001 C CNN
	1    5085 1855
	1    0    0    -1  
$EndComp
$Comp
L power:+3.3V #PWR010
U 1 1 5E7480D7
P 5085 1010
F 0 "#PWR010" H 5085 860 50  0001 C CNN
F 1 "+3.3V" H 5100 1183 50  0000 C CNN
F 2 "" H 5085 1010 50  0001 C CNN
F 3 "" H 5085 1010 50  0001 C CNN
	1    5085 1010
	1    0    0    -1  
$EndComp
$Comp
L Device:C_Small C4
U 1 1 5E7480E1
P 4925 1545
F 0 "C4" H 4800 1620 50  0000 L CNN
F 1 "100nF" H 4680 1475 50  0000 L CNN
F 2 "Capacitor_SMD:C_0805_2012Metric" H 4925 1545 50  0001 C CNN
F 3 "~" H 4925 1545 50  0001 C CNN
	1    4925 1545
	1    0    0    -1  
$EndComp
$Comp
L Device:R_Small R5
U 1 1 5E7480EB
P 5085 1195
F 0 "R5" H 5144 1241 50  0000 L CNN
F 1 "10K" H 5144 1150 50  0000 L CNN
F 2 "Resistor_SMD:R_0805_2012Metric" H 5085 1195 50  0001 C CNN
F 3 "~" H 5085 1195 50  0001 C CNN
	1    5085 1195
	1    0    0    -1  
$EndComp
Wire Wire Line
	5085 1855 5085 1810
Wire Wire Line
	4925 1645 4925 1810
Wire Wire Line
	4925 1810 5085 1810
Connection ~ 5085 1810
Wire Wire Line
	5085 1810 5085 1770
Wire Wire Line
	5085 1295 5085 1330
Wire Wire Line
	4925 1445 4925 1330
Wire Wire Line
	4925 1330 5085 1330
Connection ~ 5085 1330
Wire Wire Line
	5085 1330 5085 1370
Wire Wire Line
	5085 1095 5085 1010
$Comp
L Device:R_Small R6
U 1 1 5E748100
P 5315 1330
F 0 "R6" V 5245 1370 50  0000 L CNN
F 1 "450R" V 5385 1100 50  0000 L CNN
F 2 "Resistor_SMD:R_0805_2012Metric" H 5315 1330 50  0001 C CNN
F 3 "~" H 5315 1330 50  0001 C CNN
	1    5315 1330
	0    1    1    0   
$EndComp
Wire Wire Line
	5085 1330 5215 1330
Wire Wire Line
	5415 1330 5480 1330
Text GLabel 5480 1330 2    50   Input ~ 0
EN
Text GLabel 4375 1290 2    50   Input ~ 0
IO0
Text GLabel 1180 3585 0    50   Input ~ 0
EN
Wire Wire Line
	1255 3585 1180 3585
Text GLabel 2535 3585 2    50   Input ~ 0
IO0
$Comp
L Device:R_Small R2
U 1 1 5E7F8E2C
P 3610 3910
F 0 "R2" H 3669 3956 50  0000 L CNN
F 1 "10K" H 3669 3865 50  0000 L CNN
F 2 "Resistor_SMD:R_0805_2012Metric" H 3610 3910 50  0001 C CNN
F 3 "~" H 3610 3910 50  0001 C CNN
	1    3610 3910
	1    0    0    -1  
$EndComp
Wire Wire Line
	3610 3785 3610 3810
$Comp
L power:GND #PWR07
U 1 1 5E81D5A3
P 3610 4055
F 0 "#PWR07" H 3610 3805 50  0001 C CNN
F 1 "GND" H 3615 3882 50  0000 C CNN
F 2 "" H 3610 4055 50  0001 C CNN
F 3 "" H 3610 4055 50  0001 C CNN
	1    3610 4055
	1    0    0    -1  
$EndComp
Wire Wire Line
	3610 4010 3610 4055
Wire Wire Line
	3340 3710 3300 3710
Wire Wire Line
	3300 3710 3300 3785
NoConn ~ 2455 5185
NoConn ~ 2455 5285
$Comp
L Device:LED_Dual_CACA D1
U 1 1 5EA7C042
P 12560 7950
F 0 "D1" H 12560 8375 50  0000 C CNN
F 1 "LED_Dual_CACA" H 12560 8284 50  0000 C CNN
F 2 "Pauls_KiCAD_Libraries:LED_R-G_2x1.3mm" H 12590 7950 50  0001 C CNN
F 3 "~" H 12590 7950 50  0001 C CNN
	1    12560 7950
	1    0    0    -1  
$EndComp
Wire Wire Line
	12260 7850 12260 7950
Wire Wire Line
	12180 7950 12260 7950
Connection ~ 12260 7950
Wire Wire Line
	12260 7950 12260 8050
$Comp
L Device:LED_Dual_CACA D2
U 1 1 5EAC5A4B
P 12565 8640
F 0 "D2" H 12565 9065 50  0000 C CNN
F 1 "LED_Dual_CACA" H 12565 8974 50  0000 C CNN
F 2 "Pauls_KiCAD_Libraries:LED_R-G_2x1.3mm" H 12595 8640 50  0001 C CNN
F 3 "~" H 12595 8640 50  0001 C CNN
	1    12565 8640
	1    0    0    -1  
$EndComp
Wire Wire Line
	12265 8540 12265 8640
Wire Wire Line
	12185 8640 12265 8640
Connection ~ 12265 8640
Wire Wire Line
	12265 8640 12265 8740
$Comp
L Device:C_Small C21
U 1 1 5EC83DA0
P 11300 5910
F 0 "C21" H 11392 5956 50  0000 L CNN
F 1 "10uF" H 11392 5865 50  0000 L CNN
F 2 "Capacitor_SMD:C_0805_2012Metric" H 11300 5910 50  0001 C CNN
F 3 "~" H 11300 5910 50  0001 C CNN
	1    11300 5910
	1    0    0    -1  
$EndComp
Wire Wire Line
	11300 6010 11300 6065
Connection ~ 11300 6065
Wire Wire Line
	11300 6065 11605 6065
Wire Wire Line
	11300 5810 11300 5705
Connection ~ 11300 5705
Wire Wire Line
	11300 5705 11305 5705
$Comp
L Device:C_Small C20
U 1 1 5ECD3A03
P 11155 5910
F 0 "C20" H 11015 5980 50  0000 L CNN
F 1 "100nF" H 11095 5810 50  0000 L CNN
F 2 "Capacitor_SMD:C_0805_2012Metric" H 11155 5910 50  0001 C CNN
F 3 "~" H 11155 5910 50  0001 C CNN
	1    11155 5910
	1    0    0    -1  
$EndComp
Wire Wire Line
	11155 5810 11155 5705
Wire Wire Line
	11155 6010 11155 6065
Connection ~ 11155 6065
Wire Wire Line
	11155 6065 11300 6065
Wire Wire Line
	2455 4485 2560 4485
Text Notes 3135 4315 0    50   ~ 0
} PWM Out\n
Text GLabel 2560 4485 2    50   Input ~ 0
USB2_Control
Text Notes 9335 8850 0    50   ~ 0
Tested:\nWS: pin 24 (GPIO:2)\nCLK: pin 13 (GPIO: 14)\nSD: pin26 (GPIO4)
Text Notes 9970 8025 0    50   ~ 0
Sel = Right channel
Text Notes 9150 8355 0    50   ~ 0
* Note: carefully place SPH0645 onto PCB.\nFront pad alignments are critical.
Wire Wire Line
	14690 1880 14690 1980
$Comp
L LED-String-USB-Controller-rescue:USB_B-Connector J9
U 1 1 5F96A537
P 14370 4950
F 0 "J9" H 14427 5417 50  0000 C CNN
F 1 "USB_B" H 14427 5326 50  0000 C CNN
F 2 "Connector_USB:USB_A_Stewart_SS-52100-001_Horizontal" H 14520 4900 50  0001 C CNN
F 3 " ~" H 14520 4900 50  0001 C CNN
	1    14370 4950
	1    0    0    -1  
$EndComp
$Comp
L Device:R_Small R13
U 1 1 5F96A53D
P 13855 5685
F 0 "R13" V 13659 5685 50  0000 C CNN
F 1 "150" V 13750 5685 50  0000 C CNN
F 2 "Resistor_SMD:R_0805_2012Metric" H 13855 5685 50  0001 C CNN
F 3 "~" H 13855 5685 50  0001 C CNN
	1    13855 5685
	0    1    1    0   
$EndComp
$Comp
L Device:R_Small R15
U 1 1 5F96A543
P 14005 5885
F 0 "R15" H 14064 5931 50  0000 L CNN
F 1 "10K" H 14064 5840 50  0000 L CNN
F 2 "Resistor_SMD:R_0805_2012Metric" H 14005 5885 50  0001 C CNN
F 3 "~" H 14005 5885 50  0001 C CNN
	1    14005 5885
	1    0    0    -1  
$EndComp
Text GLabel 13685 5685 0    50   Input ~ 0
USB2_Control
$Comp
L power:+5V #PWR051
U 1 1 5F96A54A
P 14740 4650
F 0 "#PWR051" H 14740 4500 50  0001 C CNN
F 1 "+5V" H 14755 4823 50  0000 C CNN
F 2 "" H 14740 4650 50  0001 C CNN
F 3 "" H 14740 4650 50  0001 C CNN
	1    14740 4650
	1    0    0    -1  
$EndComp
$Comp
L Pauls_Symbol_Library:Transistor_MOSFET-N_AO3401A Q3
U 1 1 5F96A550
P 14320 5685
F 0 "Q3" H 14474 5731 50  0000 L CNN
F 1 "MOSFET-N_AO3401A" H 14474 5640 50  0000 L CNN
F 2 "Package_TO_SOT_SMD:SOT-23" H 14470 5610 50  0001 L CIN
F 3 "" H 14270 5685 50  0001 L CNN
	1    14320 5685
	1    0    0    -1  
$EndComp
$Comp
L power:GND #PWR049
U 1 1 5F96A556
P 14370 6080
F 0 "#PWR049" H 14370 5830 50  0001 C CNN
F 1 "GND" H 14375 5907 50  0000 C CNN
F 2 "" H 14370 6080 50  0001 C CNN
F 3 "" H 14370 6080 50  0001 C CNN
	1    14370 6080
	1    0    0    -1  
$EndComp
Wire Wire Line
	14070 5685 14005 5685
Wire Wire Line
	14005 5685 14005 5785
Connection ~ 14005 5685
Wire Wire Line
	14005 5685 13955 5685
Wire Wire Line
	14370 5350 14370 5410
Wire Wire Line
	14370 5885 14370 6025
Wire Wire Line
	14005 5985 14005 6025
Wire Wire Line
	14005 6025 14370 6025
Connection ~ 14370 6025
Wire Wire Line
	14370 6025 14370 6080
Wire Wire Line
	14270 5350 14270 5410
Wire Wire Line
	14270 5410 14370 5410
Connection ~ 14370 5410
Wire Wire Line
	14370 5410 14370 5485
Wire Wire Line
	14670 4750 14740 4750
Text Notes 14405 5915 0    50   ~ 0
Rdson = 45mOhm
Wire Wire Line
	13685 5685 13755 5685
Wire Wire Line
	14740 4650 14740 4750
$Comp
L LED-String-USB-Controller-rescue:USB_B-Connector J7
U 1 1 5F97D763
P 11130 2050
F 0 "J7" H 11187 2517 50  0000 C CNN
F 1 "USB_B" H 11187 2426 50  0000 C CNN
F 2 "Connector_USB:USB_A_Stewart_SS-52100-001_Horizontal" H 11280 2000 50  0001 C CNN
F 3 " ~" H 11280 2000 50  0001 C CNN
	1    11130 2050
	1    0    0    -1  
$EndComp
$Comp
L Device:R_Small R7
U 1 1 5F97D769
P 10615 2785
F 0 "R7" V 10419 2785 50  0000 C CNN
F 1 "150" V 10510 2785 50  0000 C CNN
F 2 "Resistor_SMD:R_0805_2012Metric" H 10615 2785 50  0001 C CNN
F 3 "~" H 10615 2785 50  0001 C CNN
	1    10615 2785
	0    1    1    0   
$EndComp
$Comp
L Device:R_Small R8
U 1 1 5F97D76F
P 10765 2985
F 0 "R8" H 10824 3031 50  0000 L CNN
F 1 "10K" H 10824 2940 50  0000 L CNN
F 2 "Resistor_SMD:R_0805_2012Metric" H 10765 2985 50  0001 C CNN
F 3 "~" H 10765 2985 50  0001 C CNN
	1    10765 2985
	1    0    0    -1  
$EndComp
Text GLabel 10445 2785 0    50   Input ~ 0
USB3_Control
$Comp
L power:+5V #PWR044
U 1 1 5F97D776
P 11500 1750
F 0 "#PWR044" H 11500 1600 50  0001 C CNN
F 1 "+5V" H 11515 1923 50  0000 C CNN
F 2 "" H 11500 1750 50  0001 C CNN
F 3 "" H 11500 1750 50  0001 C CNN
	1    11500 1750
	1    0    0    -1  
$EndComp
$Comp
L Pauls_Symbol_Library:Transistor_MOSFET-N_AO3401A Q1
U 1 1 5F97D77C
P 11080 2785
F 0 "Q1" H 11234 2831 50  0000 L CNN
F 1 "MOSFET-N_AO3401A" H 11234 2740 50  0000 L CNN
F 2 "Package_TO_SOT_SMD:SOT-23" H 11230 2710 50  0001 L CIN
F 3 "" H 11030 2785 50  0001 L CNN
	1    11080 2785
	1    0    0    -1  
$EndComp
$Comp
L power:GND #PWR039
U 1 1 5F97D782
P 11130 3180
F 0 "#PWR039" H 11130 2930 50  0001 C CNN
F 1 "GND" H 11135 3007 50  0000 C CNN
F 2 "" H 11130 3180 50  0001 C CNN
F 3 "" H 11130 3180 50  0001 C CNN
	1    11130 3180
	1    0    0    -1  
$EndComp
Wire Wire Line
	10830 2785 10765 2785
Wire Wire Line
	10765 2785 10765 2885
Connection ~ 10765 2785
Wire Wire Line
	10765 2785 10715 2785
Wire Wire Line
	11130 2450 11130 2510
Wire Wire Line
	11130 2985 11130 3125
Wire Wire Line
	10765 3085 10765 3125
Wire Wire Line
	10765 3125 11130 3125
Connection ~ 11130 3125
Wire Wire Line
	11130 3125 11130 3180
Wire Wire Line
	11030 2450 11030 2510
Wire Wire Line
	11030 2510 11130 2510
Connection ~ 11130 2510
Wire Wire Line
	11130 2510 11130 2585
Wire Wire Line
	11430 1850 11500 1850
Text Notes 11165 3015 0    50   ~ 0
Rdson = 45mOhm
Wire Wire Line
	10445 2785 10515 2785
Wire Wire Line
	11500 1750 11500 1850
NoConn ~ 11430 2050
NoConn ~ 11430 2150
NoConn ~ 14670 4950
NoConn ~ 14670 5050
NoConn ~ 14620 2180
NoConn ~ 14620 2280
Text GLabel 2560 4385 2    50   Input ~ 0
i2s_CLK
$Comp
L Pauls_Symbol_Library:SPH0645LMH U5
U 1 1 5FA87817
P 10130 7635
F 0 "U5" H 10130 8000 50  0000 C CNN
F 1 "SPH0645LMH" H 10130 7909 50  0000 C CNN
F 2 "Pauls_KiCAD_Libraries:SPH0645LM4H-B-SMD-GND" H 10230 7985 50  0001 C CNN
F 3 "" H 10130 7635 50  0001 C CNN
	1    10130 7635
	1    0    0    -1  
$EndComp
Wire Wire Line
	10580 7535 10690 7535
Wire Wire Line
	10580 7635 10635 7635
Wire Wire Line
	10580 7735 10685 7735
Text Notes 7545 3830 0    50   ~ 0
RGB power is supplied from external source\nor for a short string of 20 RGB LEDs, from \nthe USB socket
Wire Wire Line
	2455 3585 2535 3585
Wire Wire Line
	2455 4385 2560 4385
Text Notes 3130 4110 0    50   ~ 0
} PWM Out
$Comp
L Connector:Conn_01x04_Male J1
U 1 1 5FB42A59
P 820 2035
F 0 "J1" H 928 2316 50  0000 C CNN
F 1 "OLED" H 928 2225 50  0000 C CNN
F 2 "Connector_PinHeader_2.54mm:PinHeader_1x04_P2.54mm_Vertical" H 820 2035 50  0001 C CNN
F 3 "~" H 820 2035 50  0001 C CNN
	1    820  2035
	1    0    0    -1  
$EndComp
$Comp
L power:+3.3V #PWR01
U 1 1 5FB43B31
P 1090 1860
F 0 "#PWR01" H 1090 1710 50  0001 C CNN
F 1 "+3.3V" H 1105 2033 50  0000 C CNN
F 2 "" H 1090 1860 50  0001 C CNN
F 3 "" H 1090 1860 50  0001 C CNN
	1    1090 1860
	1    0    0    -1  
$EndComp
$Comp
L power:GND #PWR02
U 1 1 5FB443D3
P 1110 2285
F 0 "#PWR02" H 1110 2035 50  0001 C CNN
F 1 "GND" H 1115 2112 50  0000 C CNN
F 2 "" H 1110 2285 50  0001 C CNN
F 3 "" H 1110 2285 50  0001 C CNN
	1    1110 2285
	1    0    0    -1  
$EndComp
Text GLabel 1185 1935 2    50   Input ~ 0
i2c_SDA
Text GLabel 1180 2035 2    50   Input ~ 0
i2c_SCL
Wire Wire Line
	1185 1935 1020 1935
Wire Wire Line
	1180 2035 1020 2035
Wire Wire Line
	1020 2135 1090 2135
Wire Wire Line
	1090 2135 1090 1860
Wire Wire Line
	1020 2235 1110 2235
Wire Wire Line
	1110 2235 1110 2285
$Sheet
S 1590 8470 875  795 
U 5FEA426B
F0 "UART" 50
F1 "UART.sch" 50
$EndSheet
$Comp
L Device:R_Pack04 RN1
U 1 1 5FEA59ED
P 13210 8270
F 0 "RN1" V 13535 8270 50  0000 C CNN
F 1 "1K" V 13444 8270 50  0000 C CNN
F 2 "Resistor_SMD:R_Array_Convex_4x0603" V 13485 8270 50  0001 C CNN
F 3 "~" H 13210 8270 50  0001 C CNN
	1    13210 8270
	0    -1   -1   0   
$EndComp
Wire Wire Line
	12860 8050 12890 8050
Wire Wire Line
	12890 8050 12890 8270
Wire Wire Line
	12890 8270 13010 8270
Wire Wire Line
	12865 8540 12890 8540
Wire Wire Line
	12890 8540 12890 8370
Wire Wire Line
	12890 8370 13010 8370
Wire Wire Line
	12865 8740 12945 8740
Wire Wire Line
	12945 8740 12945 8470
Wire Wire Line
	12945 8470 13010 8470
Wire Wire Line
	12860 7850 12950 7850
Wire Wire Line
	12950 7850 12950 8170
Wire Wire Line
	12950 8170 13010 8170
Text Notes 3145 4525 0    50   ~ 0
} PWM Out\n
$Comp
L Analog_ADC:INA219AxD U6
U 1 1 6006375E
P 11020 5010
F 0 "U6" V 11155 4675 50  0000 R CNN
F 1 "INA219AxD" V 11255 4690 50  0000 R CNN
F 2 "Package_SO:SOIC-8_3.9x4.9mm_P1.27mm" H 11820 4660 50  0001 C CNN
F 3 "http://www.ti.com/lit/ds/symlink/ina219.pdf" H 11370 4910 50  0001 C CNN
	1    11020 5010
	0    -1   -1   0   
$EndComp
Wire Wire Line
	11155 5410 11120 5410
Wire Wire Line
	10920 5410 10880 5410
Wire Wire Line
	10880 5410 10880 5705
Wire Wire Line
	10620 5010 10540 5010
Wire Wire Line
	10540 5010 10540 4925
Wire Wire Line
	10540 5010 10540 5075
Connection ~ 10540 5010
Wire Wire Line
	10540 5275 10540 5340
Wire Wire Line
	11420 5010 11465 5010
Wire Wire Line
	11465 5010 11465 5110
$Comp
L power:+3.3V #PWR038
U 1 1 60133F75
P 11120 4535
F 0 "#PWR038" H 11120 4385 50  0001 C CNN
F 1 "+3.3V" H 11115 4675 50  0000 C CNN
F 2 "" H 11120 4535 50  0001 C CNN
F 3 "" H 11120 4535 50  0001 C CNN
	1    11120 4535
	1    0    0    -1  
$EndComp
$Comp
L power:GND #PWR042
U 1 1 60134845
P 11320 4575
F 0 "#PWR042" H 11320 4325 50  0001 C CNN
F 1 "GND" H 11405 4565 50  0000 C CNN
F 2 "" H 11320 4575 50  0001 C CNN
F 3 "" H 11320 4575 50  0001 C CNN
	1    11320 4575
	1    0    0    -1  
$EndComp
Wire Wire Line
	11220 4610 11220 4510
Wire Wire Line
	11220 4510 11320 4510
Wire Wire Line
	11320 4510 11320 4575
Wire Wire Line
	11120 4610 11120 4535
Text GLabel 10725 4560 0    50   Input ~ 0
i2c_SDA
Text GLabel 10730 4460 0    50   Input ~ 0
i2c_SCL
Wire Wire Line
	10725 4560 10820 4560
Wire Wire Line
	10820 4560 10820 4610
Wire Wire Line
	10730 4460 10920 4460
Wire Wire Line
	10920 4460 10920 4610
$Comp
L Device:R_Small R10
U 1 1 601CF950
P 10920 4315
F 0 "R10" H 10970 4385 50  0000 L CNN
F 1 "2.7K" H 10965 4325 50  0000 L CNN
F 2 "Resistor_SMD:R_0805_2012Metric" H 10920 4315 50  0001 C CNN
F 3 "~" H 10920 4315 50  0001 C CNN
	1    10920 4315
	1    0    0    -1  
$EndComp
$Comp
L Device:R_Small R9
U 1 1 601D0505
P 10820 4315
F 0 "R9" H 10660 4375 50  0000 L CNN
F 1 "2.7K" H 10605 4290 50  0000 L CNN
F 2 "Resistor_SMD:R_0805_2012Metric" H 10820 4315 50  0001 C CNN
F 3 "~" H 10820 4315 50  0001 C CNN
	1    10820 4315
	1    0    0    -1  
$EndComp
Connection ~ 10820 4560
Wire Wire Line
	10920 4460 10920 4415
Connection ~ 10920 4460
$Comp
L power:+3.3V #PWR037
U 1 1 601FDD05
P 10820 4155
F 0 "#PWR037" H 10820 4005 50  0001 C CNN
F 1 "+3.3V" H 10815 4295 50  0000 C CNN
F 2 "" H 10820 4155 50  0001 C CNN
F 3 "" H 10820 4155 50  0001 C CNN
	1    10820 4155
	1    0    0    -1  
$EndComp
Text Notes 10860 4175 0    50   ~ 0
i2C Pullups - if needed
$Comp
L power:VBUS #PWR032
U 1 1 6021B35A
P 10260 5700
F 0 "#PWR032" H 10260 5550 50  0001 C CNN
F 1 "VBUS" H 10275 5873 50  0000 C CNN
F 2 "" H 10260 5700 50  0001 C CNN
F 3 "" H 10260 5700 50  0001 C CNN
	1    10260 5700
	1    0    0    -1  
$EndComp
Wire Wire Line
	10260 5705 10260 5700
Wire Wire Line
	10260 5705 10690 5705
Connection ~ 10690 6065
Text Notes 7610 1565 0    50   ~ 0
USB 5V Power to \nRGB LEDs
Wire Wire Line
	10920 4215 10820 4215
Wire Wire Line
	10820 4215 10820 4155
Connection ~ 10820 4215
Wire Wire Line
	10820 4415 10820 4560
Wire Wire Line
	2455 3785 3300 3785
Connection ~ 3300 3785
Wire Wire Line
	3300 3785 3610 3785
Wire Wire Line
	2735 3885 2785 3885
NoConn ~ 1255 3885
NoConn ~ 2455 4685
NoConn ~ 2455 4185
$Comp
L Logic_LevelTranslator:SN74LVC2T45DCUR U2
U 1 1 5F9D3082
P 7270 2415
F 0 "U2" H 7525 1955 50  0000 C CNN
F 1 "SN74LVC2T45DCUR" H 6765 1920 50  0000 C CNN
F 2 "Package_SO:VSSOP-8_2.4x2.1mm_P0.5mm" H 7320 1865 50  0001 C CNN
F 3 "http://www.ti.com/lit/ds/symlink/sn74lvc2t45.pdf" H 6370 1865 50  0001 C CNN
	1    7270 2415
	1    0    0    -1  
$EndComp
Text GLabel 2625 4785 2    50   Input ~ 0
RGB_LED2
Wire Wire Line
	2455 4785 2625 4785
Text GLabel 6780 2515 0    50   Input ~ 0
RGB_LED2
$Comp
L Connector:Conn_01x03_Male J5
U 1 1 5FA04A11
P 8740 2005
F 0 "J5" H 8790 1825 50  0000 R CNN
F 1 "RGB_Out1" H 8840 2210 50  0000 R CNN
F 2 "Connector_JST:JST_PH_S3B-PH-SM4-TB_1x03-1MP_P2.00mm_Horizontal" H 8740 2005 50  0001 C CNN
F 3 "~" H 8740 2005 50  0001 C CNN
	1    8740 2005
	-1   0    0    -1  
$EndComp
$Comp
L Device:C_Small C10
U 1 1 5FA1F535
P 8310 3095
F 0 "C10" H 8320 3180 50  0000 L CNN
F 1 "10uF" H 8320 3020 50  0000 L CNN
F 2 "Capacitor_SMD:C_0805_2012Metric" H 8310 3095 50  0001 C CNN
F 3 "~" H 8310 3095 50  0001 C CNN
	1    8310 3095
	-1   0    0    1   
$EndComp
$Comp
L Device:C_Small C13
U 1 1 5FA1F53F
P 8475 3095
F 0 "C13" H 8335 3175 50  0000 L CNN
F 1 "100nF" H 8220 3030 50  0000 L CNN
F 2 "Capacitor_SMD:C_0805_2012Metric" H 8475 3095 50  0001 C CNN
F 3 "~" H 8475 3095 50  0001 C CNN
	1    8475 3095
	-1   0    0    1   
$EndComp
$Comp
L Connector:Conn_01x02_Male J3
U 1 1 5FA1F553
P 7720 2930
F 0 "J3" H 7695 2865 50  0000 R CNN
F 1 "Conn_01x02_Male" H 7692 2903 50  0001 R CNN
F 2 "Connector_PinHeader_2.54mm:PinHeader_1x02_P2.54mm_Vertical" H 7720 2930 50  0001 C CNN
F 3 "~" H 7720 2930 50  0001 C CNN
	1    7720 2930
	1    0    0    -1  
$EndComp
$Comp
L Device:CP_Small C7
U 1 1 5FA1F560
P 8115 3095
F 0 "C7" H 8075 3210 50  0000 R CNN
F 1 "100uF" H 8015 3085 50  0000 R CNN
F 2 "Capacitor_Tantalum_SMD:CP_EIA-6032-28_Kemet-C" H 8115 3095 50  0001 C CNN
F 3 "~" H 8115 3095 50  0001 C CNN
	1    8115 3095
	1    0    0    -1  
$EndComp
$Comp
L power:+3.3V #PWR016
U 1 1 5FA7A8D1
P 7170 1850
F 0 "#PWR016" H 7170 1700 50  0001 C CNN
F 1 "+3.3V" H 7185 2023 50  0000 C CNN
F 2 "" H 7170 1850 50  0001 C CNN
F 3 "" H 7170 1850 50  0001 C CNN
	1    7170 1850
	1    0    0    -1  
$EndComp
Text GLabel 6775 2315 0    50   Input ~ 0
RGB_LED1
Wire Wire Line
	6870 2515 6780 2515
Wire Wire Line
	6870 2315 6775 2315
Wire Wire Line
	7170 1915 7170 1895
$Comp
L power:GND #PWR017
U 1 1 5FADD2A1
P 7270 2995
F 0 "#PWR017" H 7270 2745 50  0001 C CNN
F 1 "GND" H 7135 2915 50  0000 C CNN
F 2 "" H 7270 2995 50  0001 C CNN
F 3 "" H 7270 2995 50  0001 C CNN
	1    7270 2995
	1    0    0    -1  
$EndComp
Wire Wire Line
	7270 2915 7270 2995
$Comp
L power:+3.3V #PWR014
U 1 1 5FAF8CE1
P 6755 2715
F 0 "#PWR014" H 6755 2565 50  0001 C CNN
F 1 "+3.3V" H 6595 2775 50  0000 C CNN
F 2 "" H 6755 2715 50  0001 C CNN
F 3 "" H 6755 2715 50  0001 C CNN
	1    6755 2715
	1    0    0    -1  
$EndComp
Wire Wire Line
	6870 2715 6755 2715
$Comp
L power:GND #PWR025
U 1 1 5FCB33D3
P 8330 1720
F 0 "#PWR025" H 8330 1470 50  0001 C CNN
F 1 "GND" H 8335 1547 50  0000 C CNN
F 2 "" H 8330 1720 50  0001 C CNN
F 3 "" H 8330 1720 50  0001 C CNN
	1    8330 1720
	1    0    0    -1  
$EndComp
$Comp
L power:GND #PWR024
U 1 1 5FCB3B97
P 8265 2495
F 0 "#PWR024" H 8265 2245 50  0001 C CNN
F 1 "GND" H 8270 2322 50  0000 C CNN
F 2 "" H 8265 2495 50  0001 C CNN
F 3 "" H 8265 2495 50  0001 C CNN
	1    8265 2495
	1    0    0    -1  
$EndComp
$Comp
L Device:C_Small C9
U 1 1 5FCE4D97
P 8265 2300
F 0 "C9" H 8275 2385 50  0000 L CNN
F 1 "10uF" H 8275 2225 50  0000 L CNN
F 2 "Capacitor_SMD:C_0805_2012Metric" H 8265 2300 50  0001 C CNN
F 3 "~" H 8265 2300 50  0001 C CNN
	1    8265 2300
	-1   0    0    1   
$EndComp
$Comp
L Device:C_Small C12
U 1 1 5FCE580D
P 8430 2300
F 0 "C12" H 8290 2380 50  0000 L CNN
F 1 "100nF" H 8175 2235 50  0000 L CNN
F 2 "Capacitor_SMD:C_0805_2012Metric" H 8430 2300 50  0001 C CNN
F 3 "~" H 8430 2300 50  0001 C CNN
	1    8430 2300
	-1   0    0    1   
$EndComp
$Comp
L Device:CP_Small C6
U 1 1 5FCE5817
P 8070 2300
F 0 "C6" H 8055 2215 50  0000 R CNN
F 1 "100uF" H 8020 2375 50  0000 R CNN
F 2 "Capacitor_Tantalum_SMD:CP_EIA-6032-28_Kemet-C" H 8070 2300 50  0001 C CNN
F 3 "~" H 8070 2300 50  0001 C CNN
	1    8070 2300
	1    0    0    -1  
$EndComp
Wire Wire Line
	7670 2315 7715 2315
Wire Wire Line
	7715 2315 7715 2005
Wire Wire Line
	7715 2005 8540 2005
Wire Wire Line
	8540 1905 8490 1905
Wire Wire Line
	8490 1905 8490 1655
Wire Wire Line
	8490 1655 8330 1655
Wire Wire Line
	8330 1655 8330 1720
Wire Wire Line
	8070 2105 8070 2200
Wire Wire Line
	8265 2200 8265 2105
Connection ~ 8265 2105
Wire Wire Line
	8265 2105 8070 2105
Wire Wire Line
	8430 2200 8430 2105
Wire Wire Line
	8265 2105 8430 2105
Connection ~ 8430 2105
Wire Wire Line
	8430 2105 8540 2105
Wire Wire Line
	7670 2515 7720 2515
Wire Wire Line
	7720 2515 7720 2830
Wire Wire Line
	7720 2830 8555 2830
Wire Wire Line
	8430 2730 8430 2465
Wire Wire Line
	8070 2400 8070 2465
Wire Wire Line
	8070 2465 8265 2465
Connection ~ 8430 2465
Wire Wire Line
	8430 2465 8430 2400
Wire Wire Line
	8265 2400 8265 2465
Connection ~ 8265 2465
Wire Wire Line
	8265 2465 8430 2465
Wire Wire Line
	8265 2465 8265 2495
Wire Wire Line
	8430 2730 8555 2730
Wire Wire Line
	8555 2930 8475 2930
Wire Wire Line
	8115 2930 8115 2995
Wire Wire Line
	8310 2995 8310 2930
Connection ~ 8310 2930
Wire Wire Line
	8310 2930 8115 2930
Wire Wire Line
	8475 2995 8475 2930
Connection ~ 8475 2930
Wire Wire Line
	8475 2930 8310 2930
$Comp
L Connector:Conn_01x02_Male J4
U 1 1 5FE88CB1
P 7850 1895
F 0 "J4" H 7900 1730 50  0000 R CNN
F 1 "Conn_01x02_Male" H 7822 1868 50  0001 R CNN
F 2 "Connector_PinHeader_2.54mm:PinHeader_1x02_P2.54mm_Vertical" H 7850 1895 50  0001 C CNN
F 3 "~" H 7850 1895 50  0001 C CNN
	1    7850 1895
	1    0    0    1   
$EndComp
Wire Wire Line
	8115 2930 7920 2930
Connection ~ 8115 2930
Wire Wire Line
	8050 1795 8090 1795
Wire Wire Line
	8090 1795 8090 1725
Wire Wire Line
	8050 1895 8070 1895
Wire Wire Line
	8070 1895 8070 2105
Connection ~ 8070 2105
Wire Wire Line
	7565 3205 7920 3205
Wire Wire Line
	7920 3205 7920 3030
$Comp
L power:GND #PWR029
U 1 1 5FF223DB
P 8475 3265
F 0 "#PWR029" H 8475 3015 50  0001 C CNN
F 1 "GND" H 8340 3185 50  0000 C CNN
F 2 "" H 8475 3265 50  0001 C CNN
F 3 "" H 8475 3265 50  0001 C CNN
	1    8475 3265
	1    0    0    -1  
$EndComp
Wire Wire Line
	8475 3265 8475 3235
Wire Wire Line
	8475 3235 8310 3235
Wire Wire Line
	8115 3235 8115 3195
Connection ~ 8475 3235
Wire Wire Line
	8475 3235 8475 3195
Wire Wire Line
	8310 3195 8310 3235
Connection ~ 8310 3235
Wire Wire Line
	8310 3235 8115 3235
Wire Wire Line
	7370 1915 7370 1870
Wire Wire Line
	7370 1870 7645 1870
Wire Wire Line
	7645 1870 7645 2105
Wire Wire Line
	7645 2105 8070 2105
Text Notes 7335 3430 0    50   ~ 0
USB 5V Power to \nRGB LEDs
Wire Notes Line
	9290 1160 6180 1160
Wire Notes Line
	6180 1160 6180 3870
Wire Notes Line
	6180 3870 6205 3870
Wire Notes Line
	9290 1160 9290 3870
Text Notes 8780 2150 0    50   ~ 0
5V in
Text Notes 8775 2050 0    50   ~ 0
Data
Text Notes 8780 1935 0    50   ~ 0
GND
$Comp
L Pauls_Symbol_Library:TSL25911 U3
U 1 1 600A5B11
P 7430 8185
F 0 "U3" H 7430 8600 50  0000 C CNN
F 1 "TSL25911" H 7430 8509 50  0000 C CNN
F 2 "Pauls_KiCAD_Libraries:SON-6" H 7430 8085 50  0001 C CNN
F 3 "" H 7430 8085 50  0001 C CNN
	1    7430 8185
	1    0    0    -1  
$EndComp
Text GLabel 7915 8035 2    50   Input ~ 0
i2c_SDA
Text GLabel 6960 8035 0    50   Input ~ 0
i2c_SCL
Wire Wire Line
	7830 8035 7915 8035
Wire Wire Line
	7030 8035 6960 8035
Text GLabel 6955 8185 0    50   Input ~ 0
i2c_INT
Wire Wire Line
	7030 8185 6955 8185
$Comp
L power:GND #PWR015
U 1 1 60110C69
P 6955 8400
F 0 "#PWR015" H 6955 8150 50  0001 C CNN
F 1 "GND" H 6960 8227 50  0000 C CNN
F 2 "" H 6955 8400 50  0001 C CNN
F 3 "" H 6955 8400 50  0001 C CNN
	1    6955 8400
	1    0    0    -1  
$EndComp
$Comp
L power:+3.3V #PWR027
U 1 1 601117E0
P 8370 8145
F 0 "#PWR027" H 8370 7995 50  0001 C CNN
F 1 "+3.3V" H 8385 8318 50  0000 C CNN
F 2 "" H 8370 8145 50  0001 C CNN
F 3 "" H 8370 8145 50  0001 C CNN
	1    8370 8145
	1    0    0    -1  
$EndComp
$Comp
L Device:C_Small C11
U 1 1 601133EC
P 8370 8320
F 0 "C11" H 8230 8390 50  0000 L CNN
F 1 "100nF" H 8115 8255 50  0000 L CNN
F 2 "Capacitor_SMD:C_0805_2012Metric" H 8370 8320 50  0001 C CNN
F 3 "~" H 8370 8320 50  0001 C CNN
	1    8370 8320
	-1   0    0    1   
$EndComp
$Comp
L power:GND #PWR028
U 1 1 60115241
P 8370 8485
F 0 "#PWR028" H 8370 8235 50  0001 C CNN
F 1 "GND" H 8375 8312 50  0000 C CNN
F 2 "" H 8370 8485 50  0001 C CNN
F 3 "" H 8370 8485 50  0001 C CNN
	1    8370 8485
	1    0    0    -1  
$EndComp
Wire Wire Line
	8370 8485 8370 8420
Wire Wire Line
	8370 8220 8370 8185
Wire Wire Line
	7830 8185 8370 8185
Connection ~ 8370 8185
Wire Wire Line
	8370 8185 8370 8145
Wire Wire Line
	6955 8400 6955 8335
Wire Wire Line
	6955 8335 7030 8335
Text Notes 6505 7145 0    50   ~ 0
Light Sensor
Wire Notes Line
	8840 6950 6240 6950
Wire Notes Line
	6240 6950 6240 9570
Wire Notes Line
	6240 9570 8860 9570
Wire Notes Line
	8860 9570 8860 6950
Text Notes 6415 8975 0    50   ~ 0
Adress=29
Text Notes 6425 6335 0    50   ~ 0
Address=
Text Notes 9590 6365 0    50   ~ 0
Address=\n
$Comp
L Device:C_Small C28
U 1 1 603B5CF5
P 6820 1895
F 0 "C28" V 6745 1940 50  0000 L CNN
F 1 "100nF" V 6745 1615 50  0000 L CNN
F 2 "Capacitor_SMD:C_0805_2012Metric" H 6820 1895 50  0001 C CNN
F 3 "~" H 6820 1895 50  0001 C CNN
	1    6820 1895
	0    1    1    0   
$EndComp
Wire Wire Line
	6920 1895 7170 1895
Connection ~ 7170 1895
Wire Wire Line
	7170 1895 7170 1850
$Comp
L power:GND #PWR059
U 1 1 603D352A
P 6675 1965
F 0 "#PWR059" H 6675 1715 50  0001 C CNN
F 1 "GND" H 6540 1885 50  0000 C CNN
F 2 "" H 6675 1965 50  0001 C CNN
F 3 "" H 6675 1965 50  0001 C CNN
	1    6675 1965
	1    0    0    -1  
$EndComp
Wire Wire Line
	6720 1895 6675 1895
Wire Wire Line
	6675 1895 6675 1965
Wire Wire Line
	6630 5340 7160 5340
$Comp
L Connector:Conn_01x02_Male J11
U 1 1 5F8C34F8
P 5400 7890
F 0 "J11" H 5372 7772 50  0000 R CNN
F 1 "Motor" H 5372 7863 50  0000 R CNN
F 2 "Connector_Hirose:Hirose_DF13C_CL535-0402-2-51_1x02-1MP_P1.25mm_Vertical" H 5400 7890 50  0001 C CNN
F 3 "~" H 5400 7890 50  0001 C CNN
	1    5400 7890
	-1   0    0    1   
$EndComp
$Comp
L Device:R_Small R22
U 1 1 5F8C3DDA
P 4685 8225
F 0 "R22" V 4489 8225 50  0000 C CNN
F 1 "150" V 4580 8225 50  0000 C CNN
F 2 "Resistor_SMD:R_0805_2012Metric" H 4685 8225 50  0001 C CNN
F 3 "~" H 4685 8225 50  0001 C CNN
	1    4685 8225
	0    1    1    0   
$EndComp
$Comp
L Device:R_Small R23
U 1 1 5F8C483E
P 4835 8425
F 0 "R23" H 4894 8471 50  0000 L CNN
F 1 "10K" H 4894 8380 50  0000 L CNN
F 2 "Resistor_SMD:R_0805_2012Metric" H 4835 8425 50  0001 C CNN
F 3 "~" H 4835 8425 50  0001 C CNN
	1    4835 8425
	1    0    0    -1  
$EndComp
Text GLabel 4515 8225 0    50   Input ~ 0
Motor1
$Comp
L Pauls_Symbol_Library:Transistor_MOSFET-N_AO3401A Q6
U 1 1 5F8C4849
P 5150 8225
F 0 "Q6" H 5304 8271 50  0000 L CNN
F 1 "MOSFET-N_AO3401A" H 5304 8180 50  0000 L CNN
F 2 "Package_TO_SOT_SMD:SOT-23" H 5300 8150 50  0001 L CIN
F 3 "" H 5100 8225 50  0001 L CNN
	1    5150 8225
	1    0    0    -1  
$EndComp
$Comp
L power:GND #PWR0101
U 1 1 5F8C4853
P 5200 8740
F 0 "#PWR0101" H 5200 8490 50  0001 C CNN
F 1 "GND" H 5205 8567 50  0000 C CNN
F 2 "" H 5200 8740 50  0001 C CNN
F 3 "" H 5200 8740 50  0001 C CNN
	1    5200 8740
	1    0    0    -1  
$EndComp
Wire Wire Line
	4900 8225 4835 8225
Wire Wire Line
	4835 8225 4835 8325
Connection ~ 4835 8225
Wire Wire Line
	4835 8225 4785 8225
Text Notes 5235 8455 0    50   ~ 0
Rdson = 45mOhm
Wire Wire Line
	4515 8225 4585 8225
Wire Wire Line
	5200 7890 5200 8025
$Comp
L power:+5V #PWR0102
U 1 1 5F908AB0
P 5200 7700
F 0 "#PWR0102" H 5200 7550 50  0001 C CNN
F 1 "+5V" H 5215 7873 50  0000 C CNN
F 2 "" H 5200 7700 50  0001 C CNN
F 3 "" H 5200 7700 50  0001 C CNN
	1    5200 7700
	1    0    0    -1  
$EndComp
Wire Wire Line
	5200 7790 5200 7705
$Comp
L Device:D_Small D3
U 1 1 5F928C70
P 5085 7840
F 0 "D3" V 5010 7695 50  0000 L CNN
F 1 "1N4001" V 5160 7530 50  0000 L CNN
F 2 "Diode_SMD:D_0805_2012Metric" V 5085 7840 50  0001 C CNN
F 3 "~" V 5085 7840 50  0001 C CNN
	1    5085 7840
	0    1    1    0   
$EndComp
Wire Wire Line
	5085 7740 5085 7705
Wire Wire Line
	5085 7705 5200 7705
Connection ~ 5200 7705
Wire Wire Line
	5200 7705 5200 7700
Wire Wire Line
	5085 7940 5085 8025
Wire Wire Line
	5085 8025 5200 8025
Connection ~ 5200 8025
$Comp
L Device:R_Small R24
U 1 1 5F9680BC
P 5200 8580
F 0 "R24" H 5259 8626 50  0000 L CNN
F 1 "47R" H 5259 8535 50  0000 L CNN
F 2 "Resistor_SMD:R_0805_2012Metric" H 5200 8580 50  0001 C CNN
F 3 "~" H 5200 8580 50  0001 C CNN
	1    5200 8580
	1    0    0    -1  
$EndComp
Wire Wire Line
	5200 8425 5200 8480
Wire Wire Line
	5200 8680 5200 8710
Wire Wire Line
	4835 8710 5200 8710
Wire Wire Line
	4835 8525 4835 8710
Connection ~ 5200 8710
Wire Wire Line
	5200 8710 5200 8740
Text Notes 4415 7210 0    50   ~ 0
Vibrating Motor
Wire Notes Line
	6175 6950 6175 9565
Wire Notes Line
	6175 9565 4140 9565
Wire Notes Line
	4140 9565 4140 6950
Wire Notes Line
	4140 6950 6175 6950
Text GLabel 2560 4585 2    50   Input ~ 0
Motor1
Wire Wire Line
	2455 4585 2560 4585
$Comp
L Device:C_Small C29
U 1 1 5FA5E2E2
P 4835 7705
F 0 "C29" V 4765 7760 50  0000 L CNN
F 1 "10uF" V 4780 7480 50  0000 L CNN
F 2 "Capacitor_SMD:C_0805_2012Metric" H 4835 7705 50  0001 C CNN
F 3 "~" H 4835 7705 50  0001 C CNN
	1    4835 7705
	0    1    1    0   
$EndComp
$Comp
L power:GND #PWR0103
U 1 1 5FA600EE
P 4645 7755
F 0 "#PWR0103" H 4645 7505 50  0001 C CNN
F 1 "GND" H 4650 7582 50  0000 C CNN
F 2 "" H 4645 7755 50  0001 C CNN
F 3 "" H 4645 7755 50  0001 C CNN
	1    4645 7755
	1    0    0    -1  
$EndComp
Wire Wire Line
	4645 7755 4645 7705
Wire Wire Line
	4645 7705 4735 7705
Wire Wire Line
	5085 7705 4935 7705
Connection ~ 5085 7705
$Comp
L Device:C_Small C32
U 1 1 5FAC0EC7
P 14905 4750
F 0 "C32" V 14950 4805 50  0000 L CNN
F 1 "10uF" V 14970 4520 50  0000 L CNN
F 2 "Capacitor_SMD:C_0805_2012Metric" H 14905 4750 50  0001 C CNN
F 3 "~" H 14905 4750 50  0001 C CNN
	1    14905 4750
	0    -1   -1   0   
$EndComp
$Comp
L power:GND #PWR0104
U 1 1 5FAC19ED
P 15095 4800
F 0 "#PWR0104" H 15095 4550 50  0001 C CNN
F 1 "GND" H 15100 4627 50  0000 C CNN
F 2 "" H 15095 4800 50  0001 C CNN
F 3 "" H 15095 4800 50  0001 C CNN
	1    15095 4800
	1    0    0    -1  
$EndComp
Wire Wire Line
	15095 4800 15095 4750
Wire Wire Line
	15095 4750 15005 4750
Wire Wire Line
	14740 4750 14805 4750
Connection ~ 14740 4750
$Comp
L Device:C_Small C31
U 1 1 5FB47BE3
P 14855 1980
F 0 "C31" V 14900 2035 50  0000 L CNN
F 1 "10uF" V 14920 1750 50  0000 L CNN
F 2 "Capacitor_SMD:C_0805_2012Metric" H 14855 1980 50  0001 C CNN
F 3 "~" H 14855 1980 50  0001 C CNN
	1    14855 1980
	0    -1   -1   0   
$EndComp
$Comp
L power:GND #PWR0105
U 1 1 5FB48727
P 15045 2030
F 0 "#PWR0105" H 15045 1780 50  0001 C CNN
F 1 "GND" H 15050 1857 50  0000 C CNN
F 2 "" H 15045 2030 50  0001 C CNN
F 3 "" H 15045 2030 50  0001 C CNN
	1    15045 2030
	1    0    0    -1  
$EndComp
Wire Wire Line
	15045 2030 15045 1980
Wire Wire Line
	15045 1980 14955 1980
Wire Wire Line
	14690 1980 14755 1980
Connection ~ 14690 1980
$Comp
L power:+5V #PWR0106
U 1 1 5FB6C22C
P 11500 1750
F 0 "#PWR0106" H 11500 1600 50  0001 C CNN
F 1 "+5V" H 11515 1923 50  0000 C CNN
F 2 "" H 11500 1750 50  0001 C CNN
F 3 "" H 11500 1750 50  0001 C CNN
	1    11500 1750
	1    0    0    -1  
$EndComp
$Comp
L Device:C_Small C30
U 1 1 5FB6CD8C
P 11665 1850
F 0 "C30" V 11710 1905 50  0000 L CNN
F 1 "10uF" V 11730 1620 50  0000 L CNN
F 2 "Capacitor_SMD:C_0805_2012Metric" H 11665 1850 50  0001 C CNN
F 3 "~" H 11665 1850 50  0001 C CNN
	1    11665 1850
	0    -1   -1   0   
$EndComp
$Comp
L power:GND #PWR0107
U 1 1 5FB6CD96
P 11855 1900
F 0 "#PWR0107" H 11855 1650 50  0001 C CNN
F 1 "GND" H 11860 1727 50  0000 C CNN
F 2 "" H 11855 1900 50  0001 C CNN
F 3 "" H 11855 1900 50  0001 C CNN
	1    11855 1900
	1    0    0    -1  
$EndComp
Wire Wire Line
	11855 1900 11855 1850
Wire Wire Line
	11855 1850 11765 1850
Wire Wire Line
	11500 1850 11565 1850
Connection ~ 11500 1850
$Comp
L power:+5V #PWR0108
U 1 1 5FBA1D1B
P 7565 3205
F 0 "#PWR0108" H 7565 3055 50  0001 C CNN
F 1 "+5V" H 7580 3378 50  0000 C CNN
F 2 "" H 7565 3205 50  0001 C CNN
F 3 "" H 7565 3205 50  0001 C CNN
	1    7565 3205
	1    0    0    -1  
$EndComp
$Comp
L power:+5V #PWR0109
U 1 1 5FBA37EA
P 8090 1725
F 0 "#PWR0109" H 8090 1575 50  0001 C CNN
F 1 "+5V" H 8105 1898 50  0000 C CNN
F 2 "" H 8090 1725 50  0001 C CNN
F 3 "" H 8090 1725 50  0001 C CNN
	1    8090 1725
	1    0    0    -1  
$EndComp
Text Notes 6215 3750 0    50   ~ 0
One string of 25 x WS2812\nLEDs draws over 1A at 3.2V!
Text Notes 2910 2180 0    50   ~ 0
GND
Text Notes 2905 2070 0    50   ~ 0
Tx
Text Notes 2905 1965 0    50   ~ 0
Rx
Wire Wire Line
	2215 1935 2640 1935
Wire Wire Line
	2215 2035 2640 2035
$Comp
L Device:C_Small C?
U 1 1 5FD48093
P 14585 8655
F 0 "C?" H 14460 8730 50  0000 L CNN
F 1 "100nF" H 14340 8585 50  0000 L CNN
F 2 "Capacitor_SMD:C_0805_2012Metric" H 14585 8655 50  0001 C CNN
F 3 "~" H 14585 8655 50  0001 C CNN
	1    14585 8655
	1    0    0    -1  
$EndComp
$Comp
L Device:C_Small C?
U 1 1 5FD48E75
P 15450 8660
F 0 "C?" H 15510 8755 50  0000 L CNN
F 1 "100nF" H 15485 8575 50  0000 L CNN
F 2 "Capacitor_SMD:C_0805_2012Metric" H 15450 8660 50  0001 C CNN
F 3 "~" H 15450 8660 50  0001 C CNN
	1    15450 8660
	1    0    0    -1  
$EndComp
Wire Wire Line
	15450 8560 15450 8450
Wire Wire Line
	15450 8450 15085 8450
Connection ~ 15085 8450
Wire Wire Line
	15450 8760 15450 8900
Wire Wire Line
	15450 8900 15085 8900
Wire Wire Line
	14585 8555 14585 8450
Wire Wire Line
	14585 8450 14835 8450
Connection ~ 14835 8450
Wire Wire Line
	14585 8755 14585 8850
Wire Wire Line
	14585 8850 14835 8850
Connection ~ 14835 8850
$EndSCHEMATC
